Beer And Breweries
…
4. Compute the median alcohol content and international bitterness unit for each state. Plot a bar chart to compare.

The output shows the mean ABV by state in a barchart. Following that is another barchart of mean IBU by state, where the states are sorted in the other of the ABV (most to least) for comparison.

# let's use the original dataset for this, not with all the average values filled in
#dfFull
write.csv(dfFull, "FullBeerData.csv")

dfMedianABVAndIBUByState <- dfFull %>%
  group_by(state) %>%
  summarize(MeanABV = mean(abv,na.rm = TRUE), MeanIBU = mean(ibu, na.rm = TRUE)) %>% rename(state = state)

dfMedianABVAndIBUByState

## # A tibble: 51 x 3
##    state MeanABV MeanIBU
##    <fct>   <dbl>   <dbl>
##  1 " AK"  0.0556    40.9
##  2 " AL"  0.062     51.2
##  3 " AR"  0.052     39  
##  4 " AZ"  0.0602    35.2
##  5 " CA"  0.0611    46.3
##  6 " CO"  0.0634    47.4
##  7 " CT"  0.0611    40.8
##  8 " DC"  0.0656    55.2
##  9 " DE"  0.055     52  
## 10 " FL"  0.0599    46.8
## # ... with 41 more rows
…
dfBeerWithHipyData = inner_join(dfBeerWithIncomeManuf, dfHippyData,by = "abbr")

## Warning: Column `abbr` joining character vector and factor, coercing into
## character vector

## get these statistics by state pop

dfBeerWithHipyData

## # A tibble: 52 x 44
##    fips  abbr  full  pop_2015 state BreweryCount BreweryPerMil StateName.x
##    <chr> <chr> <chr>    <dbl> <fct>        <dbl>         <dbl> <fct>      
##  1 01    AL    Alab~  4858979 " AL"            3         0.617 Alabama    
##  2 02    AK    Alas~   738432 " AK"            7         9.48  Alaska     
##  3 04    AZ    Ariz~  6828065 " AZ"           11         1.61  Arizona    
##  4 05    AR    Arka~  2978204 " AR"            2         0.672 Arkansas   
##  5 06    CA    Cali~ 39144818 " CA"           39         0.996 California 
##  6 08    CO    Colo~  5456574 " CO"           47         8.61  Colorado   
##  7 09    CT    Conn~  3590886 " CT"            8         2.23  Connecticut
##  8 10    DE    Dela~   945934 " DE"            2         2.11  Delaware   
##  9 11    DC    Dist~   672228 " DC"            1         1.49  District o~
## 10 12    FL    Flor~ 20271272 " FL"           15         0.740 Florida    
## # ... with 42 more rows, and 36 more variables:
## #   PerCapitaDisposableIncome <dbl>, StatePriceAdjustedIncome <dbl>,
## #   StatePriceAdjustedIncomeDif <dbl>,
## #   StatePriceAdjustedIncomeDifPer <dbl>, State <fct>,
## #   MedianRealIncome <fct>, AbsoluteValueIncomeAdjPer <dbl>, GEO.id <fct>,
## #   GEO.id2 <int>, GEO.display.label <fct>, NAICS.id <fct>,
## #   NAICS.display.label <fct>, YEAR.id <int>, EMP <int>, EMP_S <dbl>,
## #   PAYANN <fct>, PAYANN_S <fct>, EMPAVPW <int>, EMPAVPW_S <dbl>,
## #   HOURS <int>, HOURS_S <dbl>, PAYANPW <int>, PAYANPW_S <dbl>,
…
## remove vermont and try again
dfBeerWithHipyDataNoNVermont <- dfBeerWithHipyData[dfBeerWithHipyData$abbr != 'VT',]
dfBeerWithHipyDataNoNVermont

## # A tibble: 51 x 46
##    fips  abbr  full  pop_2015 state BreweryCount BreweryPerMil StateName.x
##    <chr> <chr> <chr>    <dbl> <fct>        <dbl>         <dbl> <fct>      
##  1 01    AL    Alab~  4858979 " AL"            3         0.617 Alabama    
##  2 02    AK    Alas~   738432 " AK"            7         9.48  Alaska     
##  3 04    AZ    Ariz~  6828065 " AZ"           11         1.61  Arizona    
##  4 05    AR    Arka~  2978204 " AR"            2         0.672 Arkansas   
##  5 06    CA    Cali~ 39144818 " CA"           39         0.996 California 
##  6 08    CO    Colo~  5456574 " CO"           47         8.61  Colorado   
##  7 09    CT    Conn~  3590886 " CT"            8         2.23  Connecticut
##  8 10    DE    Dela~   945934 " DE"            2         2.11  Delaware   
##  9 11    DC    Dist~   672228 " DC"            1         1.49  District o~
## 10 12    FL    Flor~ 20271272 " FL"           15         0.740 Florida    
## # ... with 41 more rows, and 38 more variables:
## #   PerCapitaDisposableIncome <dbl>, StatePriceAdjustedIncome <dbl>,
## #   StatePriceAdjustedIncomeDif <dbl>,
## #   StatePriceAdjustedIncomeDifPer <dbl>, State <fct>,
## #   MedianRealIncome <fct>, AbsoluteValueIncomeAdjPer <dbl>, GEO.id <fct>,
## #   GEO.id2 <int>, GEO.display.label <fct>, NAICS.id <fct>,
## #   NAICS.display.label <fct>, YEAR.id <int>, EMP <int>, EMP_S <dbl>,
## #   PAYANN <fct>, PAYANN_S <fct>, EMPAVPW <int>, EMPAVPW_S <dbl>,
## #   HOURS <int>, HOURS_S <dbl>, PAYANPW <int>, PAYANPW_S <dbl>,
…
